<?xml version="1.0" encoding="UTF-8" standalone="no"?>
<!-- Generator: Adobe Illustrator 18.0.0, SVG Export Plug-In . SVG Version: 6.00 Build 0)  -->

<svg
   xmlns:dc="http://purl.org/dc/elements/1.1/"
   xmlns:cc="http://creativecommons.org/ns#"
   xmlns:rdf="http://www.w3.org/1999/02/22-rdf-syntax-ns#"
   xmlns:svg="http://www.w3.org/2000/svg"
   xmlns="http://www.w3.org/2000/svg"
   xmlns:sodipodi="http://sodipodi.sourceforge.net/DTD/sodipodi-0.dtd"
   xmlns:inkscape="http://www.inkscape.org/namespaces/inkscape"
   version="1.1"
   id="Capa_1"
   x="0px"
   y="0px"
   viewBox="0 0 184.751 159.99999"
   xml:space="preserve"
   sodipodi:docname="hex.svg"
   width="184.75101"
   height="160"
   inkscape:version="0.92.4 (unknown)"><metadata
   id="metadata1674"><rdf:RDF><cc:Work
       rdf:about=""><dc:format>image/svg+xml</dc:format><dc:type
         rdf:resource="http://purl.org/dc/dcmitype/StillImage" /></cc:Work></rdf:RDF></metadata><defs
   id="defs1672" /><sodipodi:namedview
   pagecolor="#ffffff"
   bordercolor="#666666"
   borderopacity="1"
   objecttolerance="10"
   gridtolerance="10"
   guidetolerance="10"
   inkscape:pageopacity="0"
   inkscape:pageshadow="2"
   inkscape:window-width="1920"
   inkscape:window-height="1016"
   id="namedview1670"
   showgrid="false"
   inkscape:zoom="1.2773949"
   inkscape:cx="5.6843419e-14"
   inkscape:cy="79.999496"
   inkscape:window-x="1920"
   inkscape:window-y="27"
   inkscape:window-maximized="1"
   inkscape:current-layer="Capa_1" />
<path
   d="M 0,80 46.188,0 h 92.378 l 46.185,80 -46.185,80 H 46.188 Z"
   id="path1637"
   inkscape:connector-curvature="0" />
<g
   id="g1639"
   transform="translate(0,-12.375)">
</g>
<g
   id="g1641"
   transform="translate(0,-12.375)">
</g>
<g
   id="g1643"
   transform="translate(0,-12.375)">
</g>
<g
   id="g1645"
   transform="translate(0,-12.375)">
</g>
<g
   id="g1647"
   transform="translate(0,-12.375)">
</g>
<g
   id="g1649"
   transform="translate(0,-12.375)">
</g>
<g
   id="g1651"
   transform="translate(0,-12.375)">
</g>
<g
   id="g1653"
   transform="translate(0,-12.375)">
</g>
<g
   id="g1655"
   transform="translate(0,-12.375)">
</g>
<g
   id="g1657"
   transform="translate(0,-12.375)">
</g>
<g
   id="g1659"
   transform="translate(0,-12.375)">
</g>
<g
   id="g1661"
   transform="translate(0,-12.375)">
</g>
<g
   id="g1663"
   transform="translate(0,-12.375)">
</g>
<g
   id="g1665"
   transform="translate(0,-12.375)">
</g>
<g
   id="g1667"
   transform="translate(0,-12.375)">
</g>
</svg>